Данные – «Другая Роза» на сайте proza.ru
…
3. Создадим таблицу с URL-ссылками на все 184 текста.

# Объединяем списки в один, частичный URL
all_links <- list(list_links1, list_links2, list_links3, list_links4) |> 
  map_dfr(~ tibble(
    title = .x |> html_text2(),
    id_text = .x |> html_attr("href")
  ))

# Выводим объединённую таблицу
print(all_links)

# A tibble: 184 × 2
   title                     id_text         
   <chr>                     <chr>           
 1 Другая Роза               /2014/04/05/1003
 2 второе письмо             /2015/04/18/686 
 3 Только Дело               /2014/05/01/568 
 4 Ежовые рукавицы           /2014/04/29/1795
 5 Как сердцу высказать себя /2014/05/02/722 
 6 синяки на душе            /2014/05/04/741 
 7 вторым классом            /2015/04/22/694 
 8 удачная поездка           /2015/04/23/918 
 9 середина лета 1898 года   /2015/04/25/1336
10 неловкие попытки          /2015/04/27/493 
# ℹ 174 more rows
…
Токенизация

1. Токенизируем.

all_roza_tokens <- all_roza_cleaned |> 
  unnest_tokens("word",
                "text",
                to_lower = TRUE,
                strip_punct = TRUE) |> 
  select(-id_text)

all_roza_tokens

# A tibble: 113,507 × 3
   title       link                             word        
   <chr>       <chr>                            <chr>       
 1 Другая Роза https://proza.ru/2014/04/05/1003 письма      
 2 Другая Роза https://proza.ru/2014/04/05/1003 больше      
 3 Другая Роза https://proza.ru/2014/04/05/1003 чем         
 4 Другая Роза https://proza.ru/2014/04/05/1003 воспоминания
 5 Другая Роза https://proza.ru/2014/04/05/1003 на          
 6 Другая Роза https://proza.ru/2014/04/05/1003 них         
 7 Другая Роза https://proza.ru/2014/04/05/1003 запеклась   
 8 Другая Роза https://proza.ru/2014/04/05/1003 кровь       
 9 Другая Роза https://proza.ru/2014/04/05/1003 событий     
10 Другая Роза https://proza.ru/2014/04/05/1003 это         
# ℹ 113,497 more rows
…
# Переводим колонку word в нижний регистр
# Удаляем все знаки препинания из столбца word
# Убираем все комбинации ".»", встречающиеся перед границей слова в столбце lemma
# Удаляем стоп слова + доп. стоп-слова
all_roza_tidy <- all_roza_ann_tbl |>
  mutate(word = tolower(str_trim(word))) |>
  mutate(word = gsub("[[:punct:]]", "", word)) |> 
  mutate(lemma = gsub("\\.»\\b", "", lemma)) |>
  anti_join(tibble(word = stopwords_ru)) |> 
  filter(!word %in% other)

all_roza_tidy

# A tibble: 60,833 × 12
   doc_id     sentence_id token_id token lemma upos  feats head_token_id dep_rel
   <chr>            <int> <chr>    <chr> <chr> <chr> <chr> <chr>         <chr>  
 1 Другая Ро…           1 2        Пись… пись… NOUN  Anim… 0             root   
 2 Другая Ро…           1 5        восп… восп… NOUN  Anim… 2             nsubj:…
 3 Другая Ро…           1 9        запе… запе… VERB  Aspe… 5             parata…
 4 Другая Ро…           1 10       кровь кровь NOUN  Anim… 9             nsubj  
 5 Другая Ро…           1 11       собы… собы… NOUN  Anim… 10            nmod   
 6 Другая Ро…           1 16       прош… прой… ADJ   Case… 9             conj   
 7 Другая Ро…           1 19       оно   оно   PRON  Case… 16            obl    
 8 Другая Ро…           1 22       заде… заде… VERB  Aspe… 16            conj   
 9 Другая Ро…           1 24       нетл… нетл… ADJ   Case… 22            obl    
10 Другая Ро…           2 1        Герц… Герц… ADJ   Degr… 18            obl    
# ℹ 60,823 more rows
# ℹ 3 more variables: deps <chr>, misc <chr>, word <chr>

# Делаем tidy таблицу с токенизированными данными
# Необходимость в токенизированной таблице возникала из-за грязных исходных данных.
# Невычитанный текст с множеством опечаток и ошибок неверно лемматизировался.
rp_token_tidy <- all_roza_tokens |> 
  anti_join(tibble(word = stopwords_ru)) |> 
  filter(!word %in% other)

rp_token_tidy

# A tibble: 63,597 × 3
   title       link                             word        
   <chr>       <chr>                            <chr>       
 1 Другая Роза https://proza.ru/2014/04/05/1003 письма      
 2 Другая Роза https://proza.ru/2014/04/05/1003 воспоминания
 3 Другая Роза https://proza.ru/2014/04/05/1003 запеклась   
 4 Другая Роза https://proza.ru/2014/04/05/1003 кровь       
 5 Другая Роза https://proza.ru/2014/04/05/1003 событий     
 6 Другая Роза https://proza.ru/2014/04/05/1003 само        
 7 Другая Роза https://proza.ru/2014/04/05/1003 прошедшее   
 8 Другая Роза https://proza.ru/2014/04/05/1003 оно         
 9 Другая Роза https://proza.ru/2014/04/05/1003 задержанное 
10 Другая Роза https://proza.ru/2014/04/05/1003 нетленное   
# ℹ 63,587 more rows
