Исследования – «Другая Роза» на сайте proza.ru
…
# всего значений/токенов/координат
clean_rp_pmi$item1 |> unique() |> length() # 20710

[1] 20710

# Positive PPMI
clean_rp_ppmi <- clean_rp_pmi |> 
  mutate(ppmi = case_when(pmi < 0 ~ 0,
                          .default = pmi))

clean_rp_ppmi |> 
  arrange(pmi)

# A tibble: 1,010,118 × 4
   item1     item2       pmi  ppmi
   <chr>     <chr>     <dbl> <dbl>
 1 особенно  roza_роза -3.75     0
 2 roza_роза особенно  -3.75     0
 3 могу      получила  -3.40     0
 4 получила  могу      -3.40     0
 5 нам       roza_роза -3.32     0
 6 roza_роза нам       -3.32     0
 7 хочу      roza_розы -3.31     0
 8 roza_розы хочу      -3.31     0
 9 другие    roza_роза -3.25     0
10 roza_роза другие    -3.25     0
# ℹ 1,010,108 more rows
…
